{
    "hash_status_code_1": {
        "message": "已是最新的",
        "description": ""
    },

    "hash_status_code_2": {
        "message": "已更新",
        "description": ""
    },

    "hash_status_code_3": {
        "message": "有可用的更新",
        "description": ""
    },

    "hash_status_code_4": {
        "message": "錯誤",
        "description": ""
    },

    "hash_status_code_5": {
        "message": "發生錯誤",
        "description": ""
    },

    "log_redirect": {
        "message": "此網址已被轉址",
        "description": ""
    },

    "log_domain_blocked": {
        "message": "此網域已被封鎖",
        "description": ""
    },

    "check_os_log": {
        "message": "[ClearURLs]: 已新增記錄監聽器",
        "description": ""
    },

    "log_html_page_title": {
        "message": "ClearURLs歷史記錄",
        "description": ""
    },

    "log_html_table_head_1": {
        "message": "處理前",
        "description": ""
    },

    "log_html_table_head_2": {
        "message": "處理後",
        "description": ""
    },

    "log_html_table_head_3": {
        "message": "規則",
        "description": ""
    },

    "log_html_table_head_4": {
        "message": "時間",
        "description": ""
    },

    "log_html_reset_button": {
        "message": "重置",
        "description": ""
    },

    "log_html_reset_button_title": {
        "message": "重置全域記錄檔",
        "description": ""
    },

    "popup_html_configs_head": {
        "message": "設定",
        "description": ""
    },

    "popup_html_configs_switch_filter": {
        "message": "過濾器",
        "description": ""
    },

    "popup_html_configs_switch_filter_title": {
        "message": "此為ClearURLs的主開關. 若關閉則此附件元件失效.",
        "description": ""
    },

    "popup_html_configs_switch_log": {
        "message": "歷史記錄",
        "description": ""
    },

    "popup_html_configs_switch_log_title": {
        "message": "記錄檔會被儲存於本機. 若不需要此功能建議關閉.",
        "description": ""
    },

    "popup_html_configs_switch_badges": {
        "message": "徽章",
        "description": ""
    },

    "popup_html_configs_switch_badges_title": {
        "message": "顯示已清理數量",
        "description": ""
    },

    "popup_html_statistics_head": {
        "message": "統計",
        "description": ""
    },

    "popup_html_statistics_elements": {
        "message": "元件",
        "description": ""
    },

    "popup_html_statistics_blocked": {
        "message": "已阻擋",
        "description": ""
    },

    "popup_html_statistics_percentage": {
        "message": "比例",
        "description": ""
    },

    "popup_html_statistics_reset_button": {
        "message": "重置",
        "description": ""
    },

    "popup_html_statistics_reset_button_title": {
        "message": "重置全域統計",
        "description": ""
    },

    "popup_html_rules_status_head": {
        "message": "規則-狀態",
        "description": ""
    },

    "popup_html_log_head": {
        "message": "記錄",
        "description": ""
    },

    "popup_html_log_head_title": {
        "message": "開啟記錄",
        "description": ""
    },

    "popup_html_report_button": {
        "message": "回報目前網址",
        "description": ""
    },

    "popup_html_report_button_title": {
        "message": "回報該分頁目前網址",
        "description": ""
    },

    "core_save_on_disk": {
        "message": "[ClearURLs]: 儲存於本機",
        "description": ""
    },

    "core_error": {
        "message": "[ClearURLs]: 附加元件無法啟動",
        "description": ""
    },

    "configs_switch_statistics": {
        "message": "統計",
        "description": ""
    },

    "configs_switch_statistics_title": {
        "message": "開啟或關閉統計功能",
        "description": ""
    },

    "settings_html_page_title": {
        "message": "ClearURLs設定",
        "description": ""
    },

    "badged_color_label": {
        "message": "徽章顏色",
        "description": ""
    },

    "setting_html_reset_button": {
        "message": "重置",
        "description": ""
    },

    "setting_html_reset_button_title": {
        "message": "重置所有設定",
        "description": ""
    },

    "setting_rule_url_label": {
        "message": "data.json檔的網址 (規則)",
        "description": ""
    },

    "settings_html_save_button": {
        "message": "儲存並重啟附件元件",
        "description": ""
    },

    "settings_html_save_button_title": {
        "message": "儲存設定",
        "description": ""
    },

    "setting_hash_url_label": {
        "message": "rules.hash檔的網址 (校驗)",
        "description": ""
    },

    "setting_types_label": {
        "message": "<a href='https://developer.mozilla.org/en-US/docs/Mozilla/Add-ons/WebExtensions/API/webRequest/ResourceType' target='_blank'>請求類型</a> (進階設定)",
        "description": ""
    },

    "setting_report_server_label": {
        "message": "回報網址",
        "description": ""
    },

    "success_report_url": {
        "message": "該網址已成功回報",
        "description": ""
    },

    "error_report_url": {
        "message": "該網址已被回報過",
        "description": ""
    },

    "donate_button": {
        "message": "給ClearURLs的作者一點贊助",
        "description": ""
    },

    "clipboard_copy_link": {
        "message": "複製清理過的網址",
        "description": ""
    },

    "context_menu_enabled": {
        "message": "顯示右鍵選單項目",
        "description": ""
    },

    "history_listener_enabled": {
        "message": "Prevent tracking injection over history API (詳見: <a href='https://developer.mozilla.org/en-US/docs/Web/API/History_API#The_replaceState()_method' target='_blank'>The replaceState() method</a>)",
        "description": ""
    },

    "cleaning_tool_page_title": {
        "message": "ClearURLs的網址清理工具",
        "description": ""
    },

    "cleaning_tool_description": {
        "message": "此工具提供手動清理網址的功能. 在下方貼上網址並按下綠色按鈕, ClearURLs將會輸出清理後的網址. 若要同時清理多個網址, 請將每個置於不同行.",
        "description": ""
    },

    "cleaning_tool_btn": {
        "message": "網址清理工具",
        "description": ""
    },

    "cleaning_tool_dirty_urls_label": {
        "message": "清理前的網址:",
        "description": ""
    },

    "cleaning_tool_clean_urls_label": {
        "message": "清理後的網址:",
        "description": ""
    }
}
