{
    "hash_status_code_1": {
        "message": "已是最新的",
        "description": ""
    },

    "hash_status_code_2": {
        "message": "已更新",
        "description": ""
    },

    "hash_status_code_3": {
        "message": "有可用的更新",
        "description": ""
    },

    "hash_status_code_4": {
        "message": "错误",
        "description": ""
    },

    "hash_status_code_5": {
        "message": "发生错误",
        "description": ""
    },

    "log_redirect": {
        "message": "此网址已被转址",
        "description": ""
    },

    "log_domain_blocked": {
        "message": "此网域已被封锁",
        "description": ""
    },

    "check_os_log": {
        "message": "[ClearURLs]: 已新增日志聆听者",
        "description": ""
    },

    "log_html_page_title": {
        "message": "ClearURLs日志",
        "description": ""
    },

    "log_html_table_head_1": {
        "message": "处理前",
        "description": ""
    },

    "log_html_table_head_2": {
        "message": "处理后",
        "description": ""
    },

    "log_html_table_head_3": {
        "message": "规则",
        "description": ""
    },

    "log_html_table_head_4": {
        "message": "时间",
        "description": ""
    },

    "log_html_reset_button": {
        "message": "重置",
        "description": ""
    },

    "log_html_reset_button_title": {
        "message": "重置全局日志",
        "description": ""
    },

    "popup_html_configs_head": {
        "message": "设定",
        "description": ""
    },

    "popup_html_configs_switch_filter": {
        "message": "过滤器",
        "description": ""
    },

    "popup_html_configs_switch_filter_title": {
        "message": "此为ClearURLs的主开关. 若关闭则此插件失效.",
        "description": ""
    },

    "popup_html_configs_switch_log": {
        "message": "日志",
        "description": ""
    },

    "popup_html_configs_switch_log_title": {
        "message": "日志会被储存于本地. 若不需要此功能建议关闭.",
        "description": ""
    },

    "popup_html_configs_switch_badges": {
        "message": "徽章",
        "description": ""
    },

    "popup_html_configs_switch_badges_title": {
        "message": "显示已清理数量",
        "description": ""
    },

    "popup_html_statistics_head": {
        "message": "统计",
        "description": ""
    },

    "popup_html_statistics_elements": {
        "message": "元件",
        "description": ""
    },

    "popup_html_statistics_blocked": {
        "message": "已阻挡",
        "description": ""
    },

    "popup_html_statistics_percentage": {
        "message": "比例",
        "description": ""
    },

    "popup_html_statistics_reset_button": {
        "message": "重置",
        "description": ""
    },

    "popup_html_statistics_reset_button_title": {
        "message": "重置全局统计",
        "description": ""
    },

    "popup_html_rules_status_head": {
        "message": "规则-状态",
        "description": ""
    },

    "popup_html_log_head": {
        "message": "日志",
        "description": ""
    },

    "popup_html_log_head_title": {
        "message": "开启日志",
        "description": ""
    },

    "popup_html_report_button": {
        "message": "回报目前网址",
        "description": ""
    },

    "popup_html_report_button_title": {
        "message": "回报该分页目前网址",
        "description": ""
    },

    "core_save_on_disk": {
        "message": "[ClearURLs]: 储存于本地",
        "description": ""
    },

    "core_error": {
        "message": "[ClearURLs]: 插件无法启动",
        "description": ""
    },

    "configs_switch_statistics": {
        "message": "统计",
        "description": ""
    },

    "configs_switch_statistics_title": {
        "message": "开启或关闭统计功能",
        "description": ""
    },

    "settings_html_page_title": {
        "message": "ClearURLs设定",
        "description": ""
    },

    "badged_color_label": {
        "message": "徽章颜色",
        "description": ""
    },

    "setting_html_reset_button": {
        "message": "重置",
        "description": ""
    },

    "setting_html_reset_button_title": {
        "message": "重置所有设定",
        "description": ""
    },

    "setting_rule_url_label": {
        "message": "data.json档的网址 (规则)",
        "description": ""
    },

    "settings_html_save_button": {
        "message": "储存并重启插件",
        "description": ""
    },

    "settings_html_save_button_title": {
        "message": "储存设定",
        "description": ""
    },

    "setting_hash_url_label": {
        "message": "rules.hash档的网址 (校验)",
        "description": ""
    },

    "setting_types_label": {
        "message": "<a href='https://developer.mozilla.org/en-US/docs/Mozilla/Add-ons/WebExtensions/API/webRequest/ResourceType' target='_blank'>请求类型</a> (进阶设定)",
        "description": ""
    },

    "setting_report_server_label": {
        "message": "回报网址",
        "description": ""
    },

    "success_report_url": {
        "message": "该网址已成功回报",
        "description": ""
    },

    "error_report_url": {
        "message": "该网址已被回报过",
        "description": ""
    },

    "donate_button": {
        "message": "给ClearURLs的作者一点贊助",
        "description": ""
    },

    "clipboard_copy_link": {
        "message": "複製清理过的网址",
        "description": ""
    },

    "context_menu_enabled": {
        "message": "显示右键选单条目",
        "description": ""
    },

    "history_listener_enabled": {
        "message": "Prevent tracking injection over history API (详见: <a href='https://developer.mozilla.org/en-US/docs/Web/API/History_API#The_replaceState()_method' target='_blank'>The replaceState() method</a>)",
        "description": ""
    },

    "cleaning_tool_page_title": {
        "message": "ClearURLs的网址清理工具",
        "description": ""
    },

    "cleaning_tool_description": {
        "message": "此工具提供手动清理网址的功能. 在下方贴上网址并按下绿色按钮, ClearURLs将会输出清理后的网址. 若要同时清理多个网址, 请将每个置于不同行.",
        "description": ""
    },

    "cleaning_tool_btn": {
        "message": "网址清理工具",
        "description": ""
    },

    "cleaning_tool_dirty_urls_label": {
        "message": "清理前的网址:",
        "description": ""
    },

    "cleaning_tool_clean_urls_label": {
        "message": "清理后的网址:",
        "description": ""
    }
}
